…
## Explore and clean the data
In particular we need to use the lubridate package to convert the character strings into date format. 


```r
ufo_sightings
```

```
## # A tibble: 80,332 x 11
##    date_time city_area state country ufo_shape encounter_length
##    <chr>     <chr>     <chr> <chr>   <chr>                <int>
##  1 10/10/19… san marc… tx    us      cylinder              2700
##  2 10/10/19… lackland… tx    <NA>    light                 7200
##  3 10/10/19… chester … <NA>  gb      circle                  20
##  4 10/10/19… edna      tx    us      circle                  20
##  5 10/10/19… kaneohe   hi    us      light                  900
##  6 10/10/19… bristol   tn    us      sphere                 300
##  7 10/10/19… penarth … <NA>  gb      circle                 180
##  8 10/10/19… norwalk   ct    us      disk                  1200
##  9 10/10/19… pell city al    us      disk                   180
## 10 10/10/19… live oak  fl    us      disk                   120
## # … with 80,322 more rows, and 5 more variables:
## #   described_encounter_length <chr>, description <chr>,
## #   date_documented <chr>, latitude <dbl>, longitude <dbl>
```
…
