…
Which owners have made the most money? The Walt Disney company, by far, followed by Nintendo.


```r
media_franchises %>%
  group_by(owners) %>% 
  summarise(revenue = sum(revenue)) %>%
  arrange(desc(revenue)) 
```

```
## # A tibble: 78 x 2
##    owners                                                           revenue
##    <chr>                                                              <dbl>
##  1 The Walt Disney Company                                            259. 
##  2 Nintendo (trademark) The Pokémon Company (Nintendo, Game Freak,…    90.9
##  3 Sanrio                                                              80.0
##  4 Lucasfilm (The Walt Disney Company)                                 63.0
##  5 Froebel-kan                                                         60.1
##  6 Nintendo                                                            49.0
##  7 DC Entertainment (AT&T)                                             44.4
##  8 Shueisha (Hitotsubashi Group)                                       36.3
##  9 Shueisha (Hitotsubashi Group) (manga) Bandai Namco (games)          33.2
## 10 Walt Disney Studios (The Walt Disney Company) (franchise) Sony …    31  
## # … with 68 more rows
```

Which creators have created the most value? 


```r
media_franchises %>%
  group_by(creators) %>% 
  summarise(revenue = sum(revenue)) %>%
  arrange(desc(revenue)) 
```

```
## # A tibble: 101 x 2
##    creators                    revenue
##    <chr>                         <dbl>
##  1 Satoshi Tajiri Ken Sugimori    90.9
##  2 Yuko Shimizu Shintaro Tsuji    80.0
##  3 A. A. Milne E. H. Shepard      74.5
##  4 Walt Disney Ub Iwerks          69.7
##  5 George Lucas                   63.0
##  6 Takashi Yanase                 60.1
##  7 Andy Mooney                    44.0
##  8 Shigeru Miyamoto               35.0
##  9 Shueisha                       33.2
## 10 Marvel Studios                 31  
## # … with 91 more rows
```
…
